<?xml version="1.0" encoding="UTF-8" standalone="no"?>
<svg
   xmlns:dc="http://purl.org/dc/elements/1.1/"
   xmlns:cc="http://creativecommons.org/ns#"
   xmlns:rdf="http://www.w3.org/1999/02/22-rdf-syntax-ns#"
   xmlns:svg="http://www.w3.org/2000/svg"
   xmlns="http://www.w3.org/2000/svg"
   xmlns:sodipodi="http://sodipodi.sourceforge.net/DTD/sodipodi-0.dtd"
   xmlns:inkscape="http://www.inkscape.org/namespaces/inkscape"
   sodipodi:docname="text-alignment.svg"
   inkscape:version="1.0 (4035a4fb49, 2020-05-01)"
   id="svg6012"
   version="1.1"
   viewBox="0 0 165.79764 112.65284"
   height="112.65285mm"
   width="165.79764mm">
  <defs
     id="defs6006" />
  <sodipodi:namedview
     inkscape:document-rotation="0"
     inkscape:window-maximized="0"
     inkscape:window-y="32"
     inkscape:window-x="0"
     inkscape:window-height="1048"
     inkscape:window-width="1920"
     showgrid="false"
     inkscape:current-layer="layer1"
     inkscape:document-units="mm"
     inkscape:cy="240.77376"
     inkscape:cx="214.9038"
     inkscape:zoom="0.9899495"
     inkscape:pageshadow="2"
     inkscape:pageopacity="0.0"
     borderopacity="1.0"
     bordercolor="#666666"
     pagecolor="#ffffff"
     id="base" />
  <metadata
     id="metadata6009">
    <rdf:RDF>
      <cc:Work
         rdf:about="">
        <dc:format>image/svg+xml</dc:format>
        <dc:type
           rdf:resource="http://purl.org/dc/dcmitype/StillImage" />
        <dc:title />
      </cc:Work>
    </rdf:RDF>
  </metadata>
  <g
     transform="translate(-30.02084,-55.09523)"
     id="layer1"
     inkscape:groupmode="layer"
     inkscape:label="Layer 1">
    <rect
       y="58.619041"
       x="31.276793"
       height="30.238094"
       width="40.065475"
       id="rect6687"
       style="fill:none;fill-opacity:1;stroke:#000000;stroke-width:1;stroke-linecap:round;stroke-linejoin:round;stroke-miterlimit:4;stroke-dasharray:none;stroke-dashoffset:0;stroke-opacity:1" />
    <rect
       y="118.15029"
       x="30.52084"
       height="41.577381"
       width="39.6875"
       id="rect6689"
       style="fill:none;fill-opacity:1;stroke:#000000;stroke-width:1;stroke-linecap:round;stroke-linejoin:round;stroke-miterlimit:4;stroke-dasharray:none;stroke-dashoffset:0;stroke-opacity:1" />
    <rect
       y="58.241066"
       x="140.13394"
       height="36.285713"
       width="48.002975"
       id="rect6691"
       style="fill:none;fill-opacity:1;stroke:#000000;stroke-width:1;stroke-linecap:round;stroke-linejoin:round;stroke-miterlimit:4;stroke-dasharray:none;stroke-dashoffset:0;stroke-opacity:1" />
    <rect
       y="116.44939"
       x="141.64586"
       height="47.247025"
       width="53.672619"
       id="rect6693"
       style="fill:none;fill-opacity:1;stroke:#000000;stroke-width:1;stroke-linecap:round;stroke-linejoin:round;stroke-miterlimit:4;stroke-dasharray:none;stroke-dashoffset:0;stroke-opacity:1" />
    <text
       id="text6697"
       y="74.157257"
       x="50.964264"
       style="font-style:normal;font-weight:normal;font-size:10.5833px;line-height:1.25;font-family:sans-serif;text-align:end;letter-spacing:0px;word-spacing:0px;text-anchor:end;fill:#000000;fill-opacity:1;stroke:none;stroke-width:0.264583"
       xml:space="preserve"><tspan
         style="text-align:end;text-anchor:end;stroke-width:0.264583"
         y="74.157257"
         x="50.964264"
         id="tspan6695"
         sodipodi:role="line">Right</tspan></text>
    <text
       id="text6701"
       y="75.074631"
       x="162.02626"
       style="font-style:normal;font-weight:normal;font-size:10.5833px;line-height:1.25;font-family:sans-serif;letter-spacing:0px;word-spacing:0px;fill:#000000;fill-opacity:1;stroke:none;stroke-width:0.264583"
       xml:space="preserve"><tspan
         style="stroke-width:0.264583"
         y="75.074631"
         x="162.02626"
         id="tspan6699"
         sodipodi:role="line">left</tspan></text>
    <text
       id="text6705"
       y="138.15828"
       x="50.27129"
       style="font-style:normal;font-weight:normal;font-size:10.5833px;line-height:1.25;font-family:sans-serif;text-align:end;letter-spacing:0px;word-spacing:0px;text-anchor:end;fill:#000000;fill-opacity:1;stroke:none;stroke-width:0.264583"
       xml:space="preserve"><tspan
         id="tspan6707"
         style="text-align:end;text-anchor:end;stroke-width:0.264583"
         y="138.15828"
         x="50.27129"
         sodipodi:role="line">Multi</tspan><tspan
         id="tspan1314"
         style="text-align:end;text-anchor:end;stroke-width:0.264583"
         y="151.38745"
         x="50.27129"
         sodipodi:role="line">line</tspan><tspan
         id="tspan6711"
         style="text-align:end;text-anchor:end;stroke-width:0.264583"
         y="164.61661"
         x="50.27129"
         sodipodi:role="line">text</tspan></text>
    <text
       id="text6715"
       y="138.21333"
       x="156.58441"
       style="font-style:normal;font-weight:normal;font-size:10.5833px;line-height:1.25;font-family:sans-serif;letter-spacing:0px;word-spacing:0px;fill:#000000;fill-opacity:1;stroke:none;stroke-width:0.264583"
       xml:space="preserve"><tspan
         style="stroke-width:0.264583"
         y="138.21333"
         x="156.58441"
         id="tspan6713"
         sodipodi:role="line">More</tspan><tspan
         id="tspan6717"
         style="stroke-width:0.264583"
         y="151.44246"
         x="156.58441"
         sodipodi:role="line">multi</tspan><tspan
         id="tspan1316"
         style="stroke-width:0.264583"
         y="164.67159"
         x="156.58441"
         sodipodi:role="line">line</tspan><tspan
         id="tspan6719"
         style="stroke-width:0.264583"
         y="177.90071"
         x="156.58441"
         sodipodi:role="line">text</tspan></text>
    <rect
       y="76.883919"
       x="81.04763"
       height="25.702381"
       width="50.837795"
       id="rect1318"
       style="fill:none;fill-opacity:1;stroke:#000000;stroke-width:1;stroke-linecap:round;stroke-linejoin:round;stroke-miterlimit:4;stroke-dasharray:none;stroke-dashoffset:0;stroke-opacity:1" />
    <text
       id="text1322"
       y="86.522308"
       x="106.09926"
       style="font-style:normal;font-weight:normal;font-size:10.5833px;line-height:1.25;font-family:sans-serif;text-align:center;letter-spacing:0px;word-spacing:0px;text-anchor:middle;fill:#000000;fill-opacity:1;stroke:none;stroke-width:0.264583"
       xml:space="preserve"><tspan
         style="text-align:center;text-anchor:middle;stroke-width:0.264583"
         y="86.522308"
         x="106.09926"
         id="tspan1320"
         sodipodi:role="line">and</tspan><tspan
         id="tspan1324"
         style="text-align:center;text-anchor:middle;stroke-width:0.264583"
         y="99.751434"
         x="106.09926"
         sodipodi:role="line">center</tspan></text>
  </g>
</svg>
